{
  "project_info": {
    "project_number": "286108898293",
    "project_id": "sisp-a5eeb",
    "storage_bucket": "sisp-a5eeb.appspot.com"
  },
  "client": [
    {
      "client_info": {
        "mobilesdk_app_id": "1:286108898293:android:9700f0b9dd714309c606bc",
        "android_client_info": {
          "package_name": "org.sp2k.mobile"
        }
      },
      "oauth_client": [
        {
          "client_id": "286108898293-p58qk9brqt6p4f98k63fc2pdg1f4m6fi.apps.googleusercontent.com",
          "client_type": 3
        }
      ],
      "api_key": [
        {
          "current_key": "AIzaSyAmnYMcZ1DhPPHlPO64ktkYxmz5AcXyKYU"
        }
      ],
      "services": {
        "appinvite_service": {
          "other_platform_oauth_client": [
            {
              "client_id": "286108898293-p58qk9brqt6p4f98k63fc2pdg1f4m6fi.apps.googleusercontent.com",
              "client_type": 3
            }
          ]
        }
      }
    },
    {
      "client_info": {
        "mobilesdk_app_id": "1:286108898293:android:3c4c263883a9c679c606bc",
        "android_client_info": {
          "package_name": "org.sp2k.mobile.dev"
        }
      },
      "oauth_client": [
        {
          "client_id": "286108898293-p58qk9brqt6p4f98k63fc2pdg1f4m6fi.apps.googleusercontent.com",
          "client_type": 3
        }
      ],
      "api_key": [
        {
          "current_key": "AIzaSyAmnYMcZ1DhPPHlPO64ktkYxmz5AcXyKYU"
        }
      ],
      "services": {
        "appinvite_service": {
          "other_platform_oauth_client": [
            {
              "client_id": "286108898293-p58qk9brqt6p4f98k63fc2pdg1f4m6fi.apps.googleusercontent.com",
              "client_type": 3
            }
          ]
        }
      }
    }
  ],
  "configuration_version": "1"
}